{
	"label": "Classes",
	"entries": [
		{
			"id": "Envoy",
			"name": "Emissário",
			"description": "<p>Você trilha seu caminho no universo com um sorriso encantador, raciocínio rápido e um sentido apurado de autopreservação e se sobressai fazendo com que os outros façam o que deseja. Você pode ser um embusteiro, trapaceiro ou vigarista, ou então um ator, embaixador ou empresário, pavimentando o caminho para a negociação através de palavras gentis ou truques sujos. Frequentemente você é o estrategista do grupo, utilizando seu raciocínio rápido e perspicácia tática para guiar seus amigos ao sucesso. Você também pode ser perito em diplomacia, servindo como a face da tripulação de uma nave, representandoos em sistemas restritos ou conseguindo audiências com políticos e senhores da guerra locais.</p> </span></p>\n<h2 class=\"title\">@Compendium[sfrpg.class-features.OzwMoyrdE3fcNZLP]{Especialidade (Ex) - 1º Nível}</h2>\n<p>Você é um especialista em lidar com desafios que testam suas perícias, sejam eles sociais ou não. No 1º nível, quando fizer um teste de Sentir Motivação, você pode rolar 1d6 (seu dado de especialidade) e somar o resultado da rolagem a seu teste como um bônus de intuição. Você pode usar esta e outras habilidades de especialidade enquanto tiver pelo menos 1 Ponto de Determinação remanescente. No 5º nível, a qualquer momento que jogar seu dado de especialidade, você recebe +1 de bônus no resultado. No 9º, 17º e 20º níveis, este bônus aumenta em 1. No 13º nível, você joga 1d8 como seu dado de especialidade em vez de 1d6.<br><br>A partir do 9º nível, você se especializa ainda mais com perícias às quais pode somar seu dado de especialidade e que também tenha selecionado com o talento Foco em Perícia. Para cada perícia dessas, uma vez por dia quando jogar seu dado de especialidade para somar a essa perícia, você pode jogar o dado de especialidade duas vezes e usar o melhor dos dois resultados.</p> <h2 class=\"title\">@Compendium[sfrpg.class-features.0HPp0nK0L1VawPYN]{Especialidade em Perícia (Ex) - 1º Nível}</h2>\n<p>No 1º nível e a cada 4 níveis subsequentes, você pode usar especialidade com uma perícia de classe adicional. Você deve ter pelo menos 1 graduação na perícia para selecioná-la e ela deve estar na seguinte lista: Blefe (Car), Computação (Int), Cultura (Int), Diplomacia (Car), Disfarce (Car), Engenharia (Int), Intimidação (Car) e Medicina (Int).</p><h2 class=\"title\">@Compendium[sfrpg.class-features.hIhgdXnqGHBm0A64]{Improvisações de Emissário - 1º Nível}</h2>\n<p><span id=\"ctl00_MainContent_DataListClasses_ctl00_LabelName\">Conforme adquire experiência, você aprende improvisações de emissário — pequenos truques que reforçam aliados, confundem inimigos ou mudam o fluxo da batalha utilizando astúcia, inspiração ou sorte. Você aprende sua primeira improvisação de emissário no 1º nível e aprende uma improvisação adicional no 2º nível e a cada 2 níveis subsequentes. A lista de improvisações de emissário aparece na página 62.<br><br>Se uma improvisação lhe permitir conceder um efeito a um aliado, você não pode concedê-lo a si mesmo a menos que a improvisação indique o contrário. Se uma improvisação de emissário permitir uma jogada de salvamento para resistir a seus efeitos ou exigir que um inimigo faça um teste de perícia, a CD é igual a 10 + metade de seu nível de emissário + seu modificador de Carisma.<br><br>Algumas improvisações de emissário são dependentes de idioma, dependentes de sentido, mentais ou alguma combinação de quaisquer ou todas estas. Estes termos são definidos na página 271.<br><h2 class=\"title\">@Compendium[sfrpg.class-features.DR8JvF0xiwsXggxj]{Apitdão de Especialidade - 3rd Level}</h2>\n<p>No 3º nível e a cada 4 níveis subsequentes, você escolhe uma aptidão de especialidade, que lhe concede uma opção extra quando utilizar uma perícia com a qual tenha especialidade. A lista de aptidões de especialidade aparece nas páginas 64 e 65.</p>\n<h2 class=\"title\">@Compendium[sfrpg.class-features.yyxPFcEO1wa7fRSJ]{Especialização em Armas (Ex) - 3º Nivel}</h2>\n<p>Você recebe Especialização em Armas como um talento bônus para cada tipo de arma que esta classe concede proficiência.</p>\n<h2 class=\"title\">@Compendium[sfrpg.class-features.3PDrv9AcAX9p4gzg]{Especialização Verdadeira (Ex) - 20º Nível}</h2>\n<p>Você adquire maestria total sobre uma de suas improvisações de emissário e pode utilizá-la com um simples pensamento. Quando adquirir esta habilidade, escolha uma improvisação conhecida que tem um efeito quando você gasta 1 Ponto de Determinação.</p>"
		},
		{
			"id": "Mechanic",
			"name": "Mecânico",
			"description": "<p><span id=\"ctl00_MainContent_DataListClasses_ctl00_LabelName\">Você é um mestre das máquinas, de supercomputadores avançados a mecanismos magnéticos simples. Entender como estes dispositivos funcionam lhe dá um entendimento sobre o mundo ao seu redor, permitindo que você construa a maioria de seus equipamentos, contorne defesas poderosas e até mesmo assuma controle de sistemas remotamente. Sua capacidade de programação também lhe dá a habilidade de criar um aliado poderoso, na forma de um implante de inteligência artificial ou um drone robótico que pode auxiliá-lo em várias tarefas. Se houver um computador ou máquina que precisa ser consertado, superado ou destruído, você é o primeiro a entrar em cena. Seja um cientista habilidoso, um engenheiro de espaçonaves ou um técnico de campo de batalha, você não é estranho ao combate — mas achará muito mais razoável ter sua IA ou drone lutando por você.</span></p><h2 class=\"title\">@Compendium[sfrpg.class-features.uWZ3LvxQ3yezLB4j]{Aparelhagem Customizada Rig (Ex) - 1º Nível}</h2>\n<p>Você cria um kit de ferramentas customizado que pode ser utilizado para hackear sistemas e itens. Sua aparelhagem customizada pode ser configurada para utilizar um encaixe de módulo em sua armadura ou pode ser instalado em um sistema de implante cibernético em seu cérebro (embora possa ser combinado com um conector de dados pelo mesmo preço que instalar um conector normalmente), em seus olhos ou em um braço. Para mais informações sobre implantes, veja o Capítulo 7: Equipamento. Alternativamente, você pode configurá-lo para ser um dispositivo portátil, significando que deve segurá-lo para utilizálo efetivamente. Enquanto utiliza esta aparelhagem, você sempre é considerado como tendo a ferramenta ou kit básico apropriado para quaisquer testes de perícia de Computação ou Engenharia que fizer. Alguns truques de mecânico (veja página 71) e mods de drone (veja página 77) requerem o uso de uma aparelhagem customizada. Além disso, você pode utilizar sua aparelhagem customizada como um comunicador pessoal (veja Capítulo 7: Equipamento). Finalmente, se tiver um drone, você pode utilizar sua aparelhagem customizada para se comunicar através de um canal encriptado com seu drone para ordenar comandos à sua IA ou controlá-lo diretamente a uma distância de 750 metros.<br><br>Se sua aparelhagem customizada for danificada, destruída, perdida ou roubada, você pode modelar uma nova a partir de um kit de engenharia, kit de hackeamento ou outro kit de ferramentas tecnológico, reconfigurando os materiais em uma nova aparelhagem customizada com 1 hora de trabalho. Você pode ter somente uma aparelhagem customizada ao mesmo tempo. Se criar uma nova aparelhagem customizada, a antiga funciona como um kit de ferramentas normal do tipo que você tiver usado para construí-lo, e não pode mais ser utilizado com seus truques de mecânico.</p><h2 class=\"title\">@Compendium[sfrpg.class-features.i7zwEHz2RWkZVOAM]{ Inteligência Artificial (Ex) - 1º Nível}</h2>\n<p><span id=\"ctl00_MainContent_DataListClasses_ctl00_LabelName\">Você constrói uma inteligência artificial (ou IA), um programa sofisticado de código automotivado que você pode acessar para ajudar em uma variedade de empreitadas. Esta IA é o produto de seu próprio gênio, muito mais avançada e complicada que qualquer outra disponível para venda (embora ela não seja realmente consciente), e somente você conhece os segredos de sua criação e operação. Sua IA pode assumir uma de duas formas: um drone ou um exocórtex. Você deve escolher uma destas formas ao selecionar seu primeiro nível de mecânico, e uma vez escolhida não pode ser alterada.</span></p> <h2 class=\"title\">@Compendium[sfrpg.class-features.tB2crolmUBN3QMOT]{Transposição (Ex) - 1º Nível}</h2>\n<p>Você é perito em invadir sistemas de computador e dispositivos eletrônicos. No 1º nível, você recebe +1 de bônus de intuição em testes de perícias de Computação e Engenharia. No 5º nível, a cada 4 níveis subsequentes, e no 20º nível, este bônus aumenta em 1.</p>\n\n<h2 class=\"title\">@Compendium[sfrpg.class-features.YMGOKoZtKgJqIsAD]{Truque de Mecênico - 2º Nível}</h2>\n<p>Conforme adquire experiência, você aprende truques que lhe permitem executar maravilhas da engenharia, auxiliar em infiltraçõeseletrônicas ou otimizar equipamentos. Embora algumas destas coisas você aprenda, outra são pequenos implantes cibernéticos que você faz para si mesmo (sendo que nenhum deles tem custo ou conta em seus limites de implantes). Alguns truques requerem o uso de uma aparelhagem customizada ou outro equipamento.<br><br>Você aprende seu primeiro truque de mecânico no 2º nível e aprende um truque de mecânico adicional no 4º nível e a cada 2 níveis subsequentes. Se um truque de mecânico permitir uma jogada de salvamento para resistir a seus efeitos, a CD é igual a 10 + metade de seu nível de mecânico + seu modificador de Inteligência. Se um truque de mecânico exigir um teste de perícia de um oponente, a CD é igual a 10 + 1,5 × seu nível de classe + seu modificador de Inteligência.<br><br>Exceto se especificado o contrário, você não pode aprender truques de mecânico mais de uma vez. A lista de truques de mecânico aparece na página 71.</p>\n<h2 class=\"title\">@Compendium[sfrpg.class-features.EE8KOT5324qTuW2o]{Curto-Circuito (Ex) - 3º Nível}</h2>\n<p>Como uma ação padrão, você pode causar curto-circuito em um dispositivo eletrônico, incluindo a maioria das armas de energia à distância, armas brancas com a propriedade especial energizada ou um único módulo de armadura. Isto torna o dispositivo não funcional por 1 rodada. Curto-circuito não faz uma porta, cofre ou outro dispositivo trancado abrir, mas impede que ele seja aberto por 1 rodada. Você deve estar adjacente ao dispositivo para utilizar esta habilidade. Se tiver um drone, em vez disso você pode utilizar esta habilidade em um dispositivo eletrônico adjacente a seu drone. Se tiver um exocórtex com a habilidade hackeamento sem fio, em vez disso você pode utilizar estar habilidade em qualquer dispositivo eletrônico dentro do alcance do hackeamento sem fio. Se você utilizar curto-circuito em um módulo de armadura ou item em posse de alguém, o dono pode tentar uma jogada de Reflexos para anular o efeito (CD = 10 + metade de seu nível de mecânico + seu modificador de Inteligência). Curto-circuito não afeta androides, armaduras energizadas, cibernéticas, drones, robôs ou criaturas com o subtipo tecnológico (todos têm proteções contra este tipo de ataque), ou itens maiores que Médio. Uma vez que um dispositivo sofra um curto-circuito, uma carga estática residual previne esse dispositivo de ser sobrecarregado novamente por 1 minuto.</p>\n<h2 class=\"title\">@Compendium[sfrpg.class-features.lOqPFn93aueiBQst]{Especialização em Armas (Ex) - 3º Nível}</h2>\n<p>Você recebe Especialização em Armas como um talento bônus para cada tipo de arma que esta classe concede proficiência.</p>\n<h2 class=\"title\">@Compendium[sfrpg.class-features.AiYxJza4CVXPRjFz]{Hackeamento Remoto(Ex) - 5º Nível}</h2>\n<p>Você pode utilizar sua aparelhagem customizada para realizar testes de perícia de Computação e Engenharia a uma distância de 6 metros. No 7º nível, e a cada 2 níveis subsequentes, esta distância aumenta em 3 metros. Um alvo desta habilidade (ou uma criatura escutando ou observando seu alvo) pode realizar um teste de Percepção ou Sentir Motivação (CD = 10 + 1,5 × seu nível de mecânico + seu modificador de Inteligência) para determinar que você é a origem desta atividade.</p>\n<h2 class=\"title\">@Compendium[sfrpg.class-features.JQiKFSMXkqLMW98N]{Aparelhagem Especializada (Ex) - 7º Nìvel}</h2>\n<p>Sua aparelhagem customizada foi aprimorada. Sempre que utilizar sua aparelhagem especializada e obtiver sucesso hackeando um computador, você também pode desativar uma contramedida instalada no sistema (exceto firewalls). Além disso, sua aparelhagem customizada agora pode ser utilizada como qualquer kit especializado de 6º nível de item ou inferior e possui as características de um computador com ranque igual à metade de seu nível com o módulo de atualização personalidade artificial, rígido ou segurança I. Ele também possui um gravador de áudio/vídeo. Você pode adicionar módulos ou contramedidas extras à sua aparelhagem customizada pelos preços normais. Veja página 213 para mais informações sobre computadores.<br><br>Você também pode utilizar sua aparelhagem customizada para se comunicar através de um canal encriptado com sua nave, permitindo acesso à sua configuração de dados e transponder (veja página 429) a um alcance de 7,5 quilômetros. Se tiver um drone, você pode dar ordens ou controlá-lo diretamente à mesma distância.</p>\n<h2 class=\"title\">@Compendium[sfrpg.class-features.D5vkMjJh78XE6KkS]{Trabalhador Milagroso (Ex) - 7º Nível}</h2>\n<p>Como uma ação de movimento, você pode reparar dano aos sistemas de uma espaçonave ou modificar uma arma ou armadura para funcionar mais eficientemente. Para usar esta habilidade, você deve ser capaz de manejar o item afetado sem impedimento. Você pode usar esta habilidade uma vez por dia no 7º nível, mais uma vez adicional por dia para cada 4 níveis de mecânico que você tiver além do 7º. O efeito exato para esta habilidade depende do objeto ou sistema que você está modificando.</p>\n<ul><li><strong>Arma:</strong>Você concede +2 de bônus de melhoria às rolagens de ataque e dano de uma arma por 1 minuto.</li><li><strong>Armadura:</strong> Você restaura Pontos de Revestimento igual ao incremento de PV da plataforma base da espaçonave. Se isto elevar os PV da nave acima de um múltiplo de seu Limiar de Crítico, você pode reparar dano crítico de um sistema a cada múltiplo, reduzindo sua severidade em um passo. Por exemplo, se o Limiar de Crítico de sua espaçonave for 8 e você restaurar 10 PV, reduzindo o dano ao revestimento de 17 PV para 7 PV, você pode restaurar um sistema de avariado para falhando. Usar esta habilidade durante um combate de espaçonaves é sua ação do turno e você pode fazê-lo somente durante a fase de engenharia. Veja a página 293 para mais sobre construção de naves e a página 320 para mais sobre dano em naves.</li>\n</ul>\n<p>&nbsp;</p>\n<h2 class=\"title\">@Compendium[sfrpg.class-features.9H5hz8bMW0i0wz2x]{Sobrescrita (Ex) - 9º Nível}</h2>\n<p>Sua característica de classe curto-circuito agora afeta androides, drones, robôs e criaturas com o subtipo tecnológico, que devem obter sucesso em uma jogada de Vontade (CD = 10 + metade de seu nível de mecânico + seu modificador de Inteligência) ou ficam pasmos por 1 rodada. Se o alvo falhar em sua jogada de salvamento por 10 ou mais, ela não fica pasma e você pode ditar suas ações por 1 rodada, embora estas ações não possam ser obviamente autodestrutivas. Uma vez que uma criatura tenha tentado uma jogada de salvamento contra este ataque (independentemente do resultado) ela fica imune a ele por 24 horas.</p>\n<h2 class=\"title\">@Compendium[sfrpg.class-features.UZMGMjpAwhGZNurI]{Ataque Coordenado (Ex) - 11º Nível}</h2>\n<p>Se tiver um drone, sempre que realizarem ataques contra o mesmo alvo, cada um de vocês recebe +1 de bônus de circunstância em suas rolagens de ataque. Se tiver um exocórtex, sempre que você e seu exocórtex tentarem hackear um sistema, cada um de vocês recebe +1 de bônus de circunstância nos testes para obter acesso. Em ambos os casos, este bônus aumenta para +2 no 17º nível.</p>\n<h2 class=\"title\">@Compendium[sfrpg.class-features.NtHGqPauPZauV7rc]{Advanced Rig (Ex) - 13th Level}</h2>\n<p>O computador de sua aparelhagem customizada recebe um firewall como contramedida bônus (veja página 217). Este firewall não tem custo adicional nem conta no número máximo de contramedidas que sua aparelhagem customizada pode ter e pode defender um módulo ou grupo de módulos já protegidos por um firewall.<br><br>Além disso, você pode utilizar sua aparelhagem customizada para se comunicar através de um canal encriptado com sua nave, permitindo acessar seus sensores, controlar seus sistemas de segurança e preparar seus motores para decolagem (bem como utilizar as funções de comunicador encriptadas de sua aparelhagem especializada) ao alcance de 75 quilômetros. Se tiver um drone, você pode dar ordens ou controlá-lo diretamente através de um canal encriptado à mesma distância.</p>\n<h2 class=\"title\">@Compendium[sfrpg.class-features.vaV8mCJdunfbWwQL]{Controlar Rede (Ex) - 17º Nível}</h2>\n<p>Você é capaz de operar múltiplas IAs, uma em um drone e uma em um exocórtex. Você deve dividir seu nível de mecânico entre estas IA, e cada uma recebe habilidades baseadas no número de níveis atribuídos a ela. Cada vez que adquirir um nível de mecânico, você pode alterar a distribuição de níveis entre estas IAs, utilizando sua aparelhagem customizada após 24 horas de trabalho ininterrupto. Embora cada IA possa agir independentemente dos limites desta habilidade, você pode controlá-las normalmente (embora possa controlar diretamente somente uma IA de cada vez). Se o número de níveis atribuídos a seu exocórtex for menor que seu nível de mecânico, seu exocórtex concede um aumento menor em seu bônus base de ataque quando usar rastreamento de combate, conforme listado na tabela abaixo. Você recebe habilidades de exocórtex adicionais normalmente, tais como hackeamento sem fio e multitarefa, baseado no nível que você atribuir a ele.</p><h2 class=\"title\">@Compendium[sfrpg.class-features.GLFInMDKp2fLRpsG]{Aparelhagem Superior (Ex) - 19º Nível}</h2>\n<p>O computador de sua aparelhagem customizada adquire bloqueio e formatar dados como contramedidas bônus. Você pode utilizar sua aparelhagem customizada normalmente mesmo quando seu bloqueio estiver ativo (você possui autorização especial para acessá-la sob quaisquer circunstâncias) e embora dados limpos não possam ser recuperados por qualquer pessoa (como se o módulo de dados estivesse destruído), você pode recuperá-los automaticamente com 8 horas de trabalho. Estas contramedidas não têm custo adicional e não contam no número máximo de contramedidas que sua aparelhagem customizada pode ter.<br><br>Além disso, você pode utilizar sua aparelhagem customizada para se comunicar através de um canal encriptado com sua nave com alcance planetário e sua órbita próxima, permitindo que você a pilote remotamente de um ponto a outro no mesmo planeta e em sua órbita (bem como utilizar as funções de comunicador encriptadas de sua aparelhagem especializada e avançada com o mesmo alcance). Se tiver um drone, você pode ordenar comandos ou controlá-lo diretamente através de um canal encriptado à mesma distância.</p><h2 class=\"title\">@Compendium[sfrpg.class-features.clTAGasLWOe1pr4D]{Fantasma na Máquina (Ex) - 19º Nível}</h2>\n<p>Quando utilizar sua característica de classe sobrescrita para afetar um androide, drone, robô ou criatura com o subtipo tecnológico, um alvo que falhar em sua jogada de salvamento por qualquer quantidade não fica pasmo, mas você pode ditar suas ações por 1 rodada, embora estas ações não possam ser obviamente autodestrutivas. Uma vez que uma criatura tenha tentado uma jogada de salvamento contra este ataque (independentemente do resultado), ela fica imune a ele por 24 horas, exceto se você gastar 1 Ponto de Determinação. Você pode continuar a gastar Pontos de Determinação desta maneira cada rodada para tornar a criatura suscetível à sobrescrita novamente.</p>\n\n<h2 class=\"title\">@Compendium[sfrpg.class-features.JSeOqPlZUkKA1KdT]{Mestre da Tecnologia (Ex) - 20º Nível}</h2>\n<p>Você é um mestre da tecnologia. Você pode gastar 1 Ponto de Determinação para criar qualquer arma, armadura ou item tecnológico à razão de 1 minuto por nível do item ou gastar 1 Ponto de Determinação para converter qualquer arma ou armadura tecnológica existente em outra arma ou armadura de mesmo ou menor valor à razão de 1 minuto por nível do item. Isto utiliza as regras normais de criação apresentadas na página 235, mas o item sendo convertido conta como seu valor total em componentes de criação. Você não pode converter uma arma de uma mão em uma arma de duas mãos. Quando converter um item em outro mais barato, qualquer valor em excesso é perdido e não pode ser recuperado ao converter o item de volta.</p>"
		},
		{
			"id": "Mystic",
			"name": "Místico",
			"description": "<p><span id=\"ctl00_MainContent_DataListClasses_ctl00_LabelName\">Você compreende que o que a maioria das pessoas chama de magia é simplesmente uma expressão da conexão inata entre todas as coisas, e intuitivamente explora este poder invisível para criar efeitos estranhos. Você pode conceitualizar a fonte de sua magia como graça divina, manipulação da energia fundamental ou como a liberação de potencial psíquico, mas sempre ciente de que é um conduíte canalizando forças maiores que você. Embora possa estudá-la, você entende que a conjuração de magias — assim como toda a existência — é desordenada e intuitiva, e se especializa em biologia e sistemas mentais complexos demais para serem perfeitamente compreendidos pela ciência. Você sente o intangível e explora seus laços com os outros, seja para ajudá-los ou curvá-los à sua vontade.</span></p>\n<p><span id=\"ctl00_MainContent_DataListClasses_ctl00_LabelName\"></span></p>\n<h2>@Compendium[sfrpg.class-features.WHSxEq59wBSVTlVi]{Magias}</h2>\n<p><span id=\"ctl00_MainContent_DataListClasses_ctl00_LabelName\"> Você conjura magias da lista de magias de místico (veja página 336). Para aprender ou conjurar uma magia, você deve ter um valor de Sabedoria igual a pelo menos 10 + o nível da magia. A Classe de Dificuldade para uma jogada de salvamento contra sua magia é 10 + o nível da magia + seu modificador de Sabedoria.<br><br>Você pode conjurar somente um determinado número de magias de cada nível de magia por dia. Seu número de magias por dia é dado na Tabela 4–4: Místico. Além disso, você recebe magias bônus por dia se tiver um modificador de Sabedoria de +1 ou superior, conforme mostrado na Tabela 4–5: Magias Bônus de Místico — note que você só recebe estas magias bônus quando puder conjurar magias desse nível normalmente. Você também pode conjurar magias de nível 0. Estas magias são conjuradas como qualquer outra magia, mas não há limite de quantas magias de nível 0 você pode conjurar por dia.<br><br>Sua seleção de magias é limitada. Você começa o jogo conhecendo quatro magias de nível 0 e duas magias de 1º nível à sua escolha. A cada novo nível de místico, você aprende uma ou duas magias novas, conforme indicado na Tabela 4–6: Magias Conhecidas de Místico. Ao contrário das magias por dia, o número de magias que você conhece não é afetado por seu modificador de Sabedoria.<br><br>Cada vez que adquirir um nível, você pode trocar uma magia que já conhece por uma nova magia de mesmo nível em seu lugar. Na prática, você perde a magia antiga em troca da nova. Você deve escolher se deseja trocar ou não a magia no mesmo momento em que recebe novas magias conhecidas para aquele nível.<br><br>A qualquer momento você pode conjurar qualquer magia de místico que conhecer, desde que não tenha usado toda suas magias por dia daquele nível de magia. Você também pode conjurar uma magia usando um espaço de magia de nível superior. Por exemplo, se você quiser conjurar uma magia de 1º nível mas já tiver usado todas as suas magias de 1º nível para aquele dia, em vez disso você pode usar uma magia de 2º nível para conjurá-la se ainda tiver alguma disponível.<br><brVocê também pode decifrar inscrições mágicas que de outra forma seriam ininteligíveis ou, como uma ação completa, identificar quaisquer magias codificadas em uma gema de magia. Isto não invoca a magia contida no item, embora possa ocorrer caso seja uma gema amaldiçoada ou com uma armadilha. </span></p>\n<h2>@Compendium[sfrpg.class-features.SdlB9viiKckPr0LZ]{Conexão - 1º Nível}</h2>\n<p>Você possui uma conexão misteriosa com alguma força que lhe concede seus poderes mágicos. A natureza exata de sua conexão pode variar bastante e mesmo místicos que compartilham a mesma conexão podem interpretá-la diferentemente. Você deve selecionar uma conexão ao adquirir seu primeiro nível de místico — uma vez feita, esta escolha não pode ser alterada. Suas opções de conexões começam na página 85.<br><br>Muitos místicos servem como sacerdotes de vários deuses e, embora teoricamente você possa escolher qualquer tipo de conexão com qualquer entidade ou conceito, divindades raramente concedem conexões que não se encaixam com suas personalidades (por exemplo, Weydan, o deus da liberdade, dificilmente verá suseranos com bons olhos). Por isso, cada conexão lista as divindades e filosofias comumente associadas a ela.</p>\n<h2 class=\"title\">@Compendium[sfrpg.class-features.emGD6wT4o7VbHx0O]{Toque de Cura (Su) - 1º Nível}</h2>\n<p>Uma vez por dia, você pode gastar 10 minutos para magicamente curar um aliado em até 5 Pontos de Vida por nível de místico.</p>\n<h2 class=\"title\">@Compendium[sfrpg.class-features.dXYaeTjwjT4Yr4Rk]{Canalizar Perícia (Su) - 2º Nível}</h2>\n<p>Você drena conhecimento, impulsos, instintos e sentimentos estranhos de sua conexão, aumentando sua proeza em certas tarefas. Cada conexão possui duas perícias associadas a ela. Você recebe +1 de bônus de intuição em testes de perícia com as perícias associadas de sua conexão. Este bônus aumenta em 1 no 5º nível e a cada 3 níveis subsequentes.</p>\n<h2 class=\"title\">@Compendium[sfrpg.class-features.AFyfOC7qaEpto7f3]{Vínculo Mental (Sp) - 2º Nível}</h2>\n<p>Você pode formar um vínculo mental com criaturas que tocar, comunicando informações rapidamente através dele. Você pode utilizar vínculo mental à vontade como uma habilidade similar a magia, embora somente uma vez por dia no mesmo indivíduo.</p>\n<h2 class=\"title\">@Compendium[sfrpg.class-features.rTaxnu0ObdXF13Sk]{ Especialização em Armas (Ex) - 3º Nível}</h2>\n<p>Você recebe Especialização em Armas como um talento bônus para cada tipo de arma que esta classe concede proficiência.</p>\n<h2 class=\"title\">@Compendium[sfrpg.class-features.ox6Am16XZqBXJNT9]{Elo Telepático (Sp) - 11º Nível}</h2>\n<p>Como uma ação padrão, você pode formar um elo telepático com até seis outras criaturas voluntárias, permitindo que vocês se comuniquem telepaticamente a grandes distâncias. Isto funciona como elo telepático, exceto que a duração é permanente. Você pode ter somente um elo telepático ativo desta forma ao mesmo tempo; criar um novo elo telepático encerra o prévio imediatamente.</p>\n<h2 class=\"title\">@Compendium[sfrpg.class-features.ceEyKkx4fzE4Lp37]{Transcendência (Sp) - 19º Nível}</h2>\n<p>Você está próximo de se tornar um com sua conexão. Você pode conjurar cada uma de suas magias de conexão uma vez por dia sem consumir um espaço de magia. Além disso, você aprende como transcender sua forma física temporariamente. Uma vez por dia, você pode gastar 1 Ponto de Determinação para projetar sua consciência para fora de seu corpo físico na forma de uma imagem psíquica intangível de você mesmo. Isto conta como um efeito de ilusão de 6º nível e dura por um número de rodadas igual a seu nível de místico. Enquanto sua consciência é projetada, seu corpo físico é considerado cego, surdo e indefeso, mas você pode retornar a seu corpo como uma ação rápida. Você pode controlar sua imagem psíquica como se ela fosse seu próprio corpo e seus sentidos percebem somente o que a imagem pode ver e ouvir. Você se move com velocidade de voo de 18 metros e manobrabilidade perfeita. Você pode atravessar objetos sólidos como se fosse incorpóreo, mas não pode atravessar um mesmo objeto sólido por mais que seu espaço (1,5 metros para uma criatura Média). Você não pode afetar objetos físicos diretamente. Sua consciência projetada é imune à maioria dos ataques ou efeitos, mesmo que eles afetem criaturas incorpóreas, mas efeitos mentais têm seus efeitos totais em você<br><br>Você pode conjurar qualquer magia de místico ou habilidade similar a magia com um alcance de toque ou maior através de sua consciência projetada. Estas magias afetam outros alvos normalmente. Você não pode conjurar magias em sua consciência projetada, exceto por magias de ilusão. Você não precisa manter uma linha de efeito para sua consciência projetada, mas se atravessar para outro plano, mesmo momentaneamente (incluindo viagens através da Deriva), sua mente retorna a seu corpo físico imediatamente.</p>\n<h2 class=\"title\">@Compendium[sfrpg.class-features.RmwJt3BRTlTW0D06]{Iluminação (Su) - 20º Nível}</h2>\n<p>&nbsp; Você alcança a iluminação, se tornando uma encarnação viva de sua conexão. Você não envelhece mais, nem morre por velhice. Uma vez por dia, como uma ação de movimento, você pode entrar em um estado de comunhão total com sua conexão que dura 1 minuto. Durante este período, você recebe +4 de bônus de intuição em rolagens de ataque, jogadas de salvamento e testes de perícia e recebe 20 Pontos de Determinação temporários que pode usar somente em poderes de conexão. Quaisquer Pontos de Determinação não gastos desaparecem ao fim deste minuto. Além disso, uma vez por semana, você pode conjurar milagre como uma habilidade similar a magia.</p>"
		},
		{
			"id": "Operative",
			"name": "Operativo",
			"description": "<p><span id=\"ctl00_MainContent_DataListClasses_ctl00_LabelName\">Você é uma sombra, se move rapidamente, ataca subitamente e sempre tem um plano de fuga. Você é um profissional consumado e sempre finaliza o serviço, seja reconhecer as linhas inimigas, caçar criminosos, roubar e contrabandear itens ou assassinar figuras importantes. Como um operativo, você é habilidoso em uma variedade de disciplinas e especialidades, e usa velocidade, mobilidade e raciocínio rápido em vez de confiar em armamentos pesados. Você se sobressai na arte da surpresa, seja atirando escondido de longe ou atacando quando estão de costas. Sua causa pode ser justa, mas você não vê problemas em lutar sujo — alcançar seu objetivo é tudo que importa.</span></p>\n<h2>@Compendium[sfrpg.class-features.a65jtTCCb5kXCz5v]{Excelência do Operativo (Ex) - 1º Nível}</h2>\n<p><span id=\"ctl00_MainContent_DataListClasses_ctl00_LabelName\"> Seu treinamento diversificado como operativo lhe concede +1 de bônus de intuição em testes de iniciativa e de perícia. Este bônus aumenta em 1 no 3º nível e a cada 4 níveis subsequentes. </span></p>\n<h2 class=\"title\">@Compendium[sfrpg.class-features.PU3uwrAcmGXMGo2n]{Especialização - 1º Nível}</h2>\n<p>Sua especialização representa sua principal área de experiência. Selecione uma especialização ao adquirir seu 1º nível de operativo. Uma vez feita, esta escolha não pode ser alterada. As descrições das especializações aparecem na página 94. Sua especialização lhe concede o talento Foco em Perícia (veja página 157) nas perícias associadas a ela e você recebe uma graduação de perícia extra em cada uma dessas perícias a cada nível de operativo (isto não permite que você exceda o número máximo de graduações em uma perícia).</p>\n<h2>@Compendium[sfrpg.class-features.MBNI94tbMoqizPUk]{Ataque Ardiloso (Ex) - 1º Nível}</h2>\n<p>Você pode enganar ou surpreender um adversário e atacá-lo quando ele baixar sua guarda. Como uma ação completa, você pode se mover até sua velocidade. Tenha se movido ou não, você pode realizar um ataque com uma arma branca com a propriedade especial operativa ou com qualquer armamento de mão. Logo antes de realizar seu ataque, faça um teste de Blefe, Furtividade ou Intimidação (ou um teste associado com sua especialização; veja página 94) com uma CD igual a 20 + o ND de seu alvo. Se obtiver sucesso no teste, você causa 1d4 de dano adicional e o alvo fica desprevenido (somente contra este ataque). Este dano aumenta para 1d8 no 3º nível, para 3d8 no 5º nível e em 1d8 adicional a cada 2 níveis subsequentes. Você não pode utilizar esta habilidade com uma arma que tenha a propriedade especial desajeitada ou que exija uma ação completa para realizar um único ataque.</p>\n<h2 class=\"title\">@Compendium[sfrpg.class-features.EpLSSSdLcqVQKcSM]{Evasão (Ex) - 2º Nível}</h2>\n<p>Se obtiver sucesso em uma jogada de Reflexos contra um efeito que normalmente possui um efeito parcial em uma jogada bem sucedida, em vez disso você não sofre nenhum efeito. Você recebe este benefício somente quando estiver desimpedido e vestindo uma armadura leve ou nenhuma armadura, e perde o benefício quando estiver indefeso ou de alguma forma incapacitado de se mover.</p>\n<h2 class=\"title\">@Compendium[sfrpg.class-features.On2ZrPJTe8FURsXY]{Proeza de Operativo - 2º Nível}</h2>\n<p>Conforme adquire experiência, você aprende truques especiais chamados de proezas de operativo. Você aprende sua primeira proeza de operativo no 2º nível e aprende uma proeza adicional a cada 2 níveis subsequentes. Se uma proeza de operativo permitir uma jogada de salvamento para resistir a seus efeitos, a CD é igual a 10 + metade de seu nível de operativo + seu modificador de Destreza. Se ela exigir um teste de perícia de um oponente, a CD é igual a 10 + 1,5 × seu nível de operativo + seu modificador de Destreza. A lista de proezas de operativo aparece na página 95. Você não pode aprender a mesma proeza mais de uma vez, exceto se especificado o contrário.</p> <h2 class=\"title\">@Compendium[sfrpg.class-features.seLibYiTN2eBls2s]{ Especialização em Armas (Ex) - 3º Nível}</h2>\n<p>Você recebe Especialização em Armas como um talento bônus para cada tipo de arma que esta classe concede proficiência</p> <h2 class=\"title\">@Compendium[sfrpg.class-features.cymsh0UZpmJB0cQK]{Movimento Rápido (Ex) - 3º Nível}</h2>\n<p>Enquanto estiver desimpedido e vestindo uma armadura leve ou nenhuma armadura, sua velocidade em terra aumenta em 3 metros. No 9º nível, em vez disso sua velocidade em terra aumenta em 6 metros e, no 15º nível, em vez disso sua velocidade em terra  aumenta em 9 metros.</p>\n\n<h2 class=\"title\">@Compendium[sfrpg.class-features.bhSrjkuWxz2DQHXC]{Árdil Debiltante (Ex) - 4º Nível}</h2>\n<p>Quando acertar um inimigo com um ataque ardiloso, você pode deixar a criatura desprevenida ou desconcentrada até o início de seu próximo turno. Você pode aprender proezas que lhe concedem opções adicionais para seu ardil debilitante, mas pode selecionar somente uma opção a cada vez que acertar com um ataque ardiloso.</p>\n<h2 class=\"title\">@Compendium[sfrpg.class-features.TpIFhqDUrNkdiEk0]{Agilidade Excepcional (Ex) - 7º Nível}</h2>\n<p>Você é imune à condição desprevenido e seu oponente não recebe quaisquer bônus em rolagens de ataque contra você quando estiver te flanqueando ou atacando quando você estiver prostrado. Além disso, disparos de cobertura e disparos de distração não fornecem qualquer vantagem contra você.</p>\n<h2 class=\"title\">@Compendium[sfrpg.class-features.YXdfeYmufD6OWP7J]{Ataque Triplo (Ex) - 8º Nível}</h2>\n<p>Quando realizar um ataque total utilizando somente armas brancas com a propriedade especial operativa ou armamento de mão, você pode realizar até três ataques em vez de dois.</p>\n<h2 class=\"title\">@Compendium[sfrpg.class-features.scbcE4mjiHoNK7Wi]{Ataque Quádruplo (Ex) - 13º Nível}</h2>\n<p>Quando realizar um ataque total utilizando somente armas brancas com a propriedade especial operativa ou armamento de mão, você pode realizar até quatro ataques em vez de dois.</p>\n<h2 class=\"title\">@Compendium[sfrpg.class-features.jd4qWJS9qElePrhf]{Debilitação Dupla (Ex) - 17º Nível}</h2>\n<p>Quando acertar um inimigo com um ataque ardiloso, você pode aplicar dois dos efeitos de seu ardil debilitante</p>\n<h2 class=\"title\">@Compendium[sfrpg.class-features.z736GBR6XdcqIaTT]{Operativo Supremo (Ex) - 2ºNível}</h2>\n<p>Sempre que fizer um teste de perícia com as perícias associadas à sua especialização, você pode jogar duas vezes e usar o melhor resultado. Uma vez por dia como uma ação de movimento, você pode temporariamente trocar uma de suas proezas de operativo por outra proeza de operativo que requeira o mesmo nível ou inferior. Esta troca dura 24 horas. Se a proeza que trocar for pré-requisito para qualquer de suas outras habilidades, você perde todas as habilidades que a tiverem, como um pré-requisito pela duração da troca.</p>"
		},
		{
			"id": "Solarian",
			"name": "Solariano",
			"description": "<p><span id=\"ctl00_MainContent_DataListClasses_ctl00_LabelName\">As estrelas guiam os planetas com gravidade, criam vida com luz e calor e consomem mundos completamente em supernovas e buracos negros. Você entende que estes atos de criação e destruição não são opostos, mas sim duas partes de um ciclo natural e dualístico. Você busca ser um agente desse ciclo, um guerreiro iluminado com a habilidade de manipular a força das próprias estrelas. Constantemente acompanhado por uma centelha de energia ou entropia fundamental, você pode moldar esta essência em combate para criar armas e armaduras de luz estelar reluzente ou de escuridão pura e devoradora. Tendo aprendido em um templo ou adquirido seus poderes através de revelação pessoal, você se reconhece como parte de uma tradição antiga — uma força de preservação e aniquilação.</span></p><h2>@Compendium[sfrpg.class-features.7ilyZdE0yZi2F3SQ]{Manifestação Solar (Su) - 1º Nível}</h2>\n<p>No 1º nível, você recebe uma manifestação física de seu poder estelar. A forma base de sua manifestação solar, quando não estiver em uso, é uma centelha de energia estelar pouco menor que seu punho que flutua próximo à sua cabeça. Além do montículo solar, sua manifestação pode assumir uma de duas formas adicionais: arma ou armadura. Você deve selecionar uma manifestação solar (arma ou armadura) ao adquirir seu primeiro nível de solariano. Você também deve escolher se sua manifestação solar (em qualquer forma) brilha intensamente com uma cor comum às estrelas (incluindo amarelo, azul, branco ou vermelho) ou se é a escuridão perfeita de um buraco negro. Uma manifestação solar brilhante, independentemente de sua  forma, emana luz fraca em um raio de 6 metros. Você pode desligar a luz ou escuridão como uma ação padrão para agir furtivamente mas, sempre que entrar em seu modo estelar (veja página 102), o brilho ou escuridão retorna imediatamente. Uma vez feitas, estas escolhas não podem ser alteradas.<br><br>Somente você pode interagir com sua manifestação solar, seja na forma de centelha, arma ou armadura. Nenhuma outra criatura ou efeito pode afetar sua manifestação solar de qualquer forma, incluindo desarmá-la ou fendê-la.</p><h2>@Compendium[sfrpg.class-features.gkmkA4cyDvRsB3c5]{Modo Estelar (Su) - 1º Nível}</h2>\n<p>As forças estelares que você convoca são sintonizadas a fótons (representando o poder de estrelas que emitem calor, luz e plasma) ou grávitons (representando o poder de estrelas que atraem e aprisionam objetos através da gravidade). A expressão máxima do poder do fóton é a supernova, quando toda a energia de uma estrela é expelida, enquanto a expressão máxima do poder do gráviton é o buraco negro, onde a gravidade é tão forte que nada, nem mesmo a luz, é capaz de escapar dele. O equilíbrio entre estas duas forças cósmicas opostas é a fonte de seu poder e seu modo estelar representa a força de sua conexão com uma ou ambas estas forças — uma relação que muda de uma hora pra outra conforme você usa suas revelações estelares.<br><br>Em batalha, você entra em um estado de alinhamento metafísico com forças cósmicas. No início de seu primeiro turno em combate, se estiver consciente, você deve escolher um dos três modos estelares: fóton, gráviton ou dessintonizado (veja abaixo).<br><br>No início de cada turno subsequente de combate, você deve escolher permanecer em seu modo estelar atual ou ficar dessintonizado. Se escolher permanecer em seu modo, você recebe outro ponto de sintonização para esse modo. Enquanto tiver 1 ou 2 pontos de sintonização em um modo, você está sintonizado nesse modo. Ao alcançar 3 pontos de sintonização em um modo, você fica completamente sintonizado nesse modo. Algumas de suas revelações estelares são revelações zênite, que podem ser utilizadas somente quando você estiver completamente sintonizado em um modo ou outro. Quando estiver completamente sintonizado, você não pode ganhar mais pontos em seu modo, mas permanece completamente sintonizado até o combate acabar, seu modo estelar se encerrar ou ficar dessintonizado. Se escolher ficar dessintonizado, você perde todos os pontos de sintonização acumulados até o momento. No início de seu próximo turno, você pode entrar em um novo modo estelar ou permanecer dessintonizado.<br><br>No final do combate, seu modo estelar se encerra. Se cair inconsciente durante um encontro, você fica dessintonizado. Se recuperar consciência enquanto ainda estiver sob ameaça, você pode entrar em um modo estelar em seu primeiro turno após recuperar consciência, como se fosse a primeira rodada do combate; se o combate acabar antes de você recuperar a consciência, seu modo estelar se encerra. Se por qualquer razão não estiver em um modo estelar, você é considerado dessintonizado para os propósitos de suas revelações estelares.<br><br>Quando não estiver em combate, você não pode entrar em um  modo estelar. Esta habilidade se manifesta somente em situações de alto risco, quando seu treinamento assume e conecta sua mente ao universo. Deve haver risco para seu modo estelar ser ativado, portanto você deve estar enfrentando um inimigo significativo (veja página 242). Se houver dúvida se você está em combate ou se pode acessar seu modo estelar, o MJ decide. Isto também significa que seu modo estelar pode se encerrar antes de uma batalha que era perigosa acabar, uma vez que o que restou é uma escória que não representa ameaça para você.</p><h2 class=\"title\">Modo Fóton</h2>\n<p>Quando entra em modo fóton, você recebe 1 ponto de sintonização de fóton e fica fóton-sintonizado. Algumas de suas revelações estelares são poderes de fóton e ficam mais fortes se você estiver fóton-sintonizado. Enquanto fóton-sintonizado, você recebe +1 de bônus em rolagens de dano (incluindo rolagens de dano de seus poderes estelares). Este bônus aumenta em 1 a cada 6 níveis de solariano que você possuir.</p> \n<h2 class=\"title\">Modo Graviton</h2>\n<p>Quando entra em modo gráviton, você recebe 1 ponto de sintonização de gráviton e fica gráviton-sintonizado. Algumas de suas revelações estelares são poderes de gráviton e ficam mais fortes se você estiver gráviton-sintonizado. Enquanto grávitonsintonizado, você recebe +1 de bônus em jogadas de Reflexos. Este bônus aumenta em 1 a cada 9 níveis de solariano que você possuir.</p>\n\n<h2 class=\"title\">Dessintonizado</h2>\n<p>Quando dessintonizado, você não recebe pontos de sintonização e não está nem fóton-sintonizado nem gráviton-sintonizado. Você não recebe benefícios enquanto dessintonizado.</p><h2 class=\"title\">@Compendium[sfrpg.class-features.L3DwUSzcydcwNmAV]{Perícias de Adepto - 1º Nível}</h2>\n<p><span id=\"ctl00_MainContent_DataListClasses_ctl00_LabelName\"> Como parte do processo que o levou a se tornar um solariano, você recebe treinamento e discernimento adicionais. Escolha duas perícias adicionais e acrescente-as à sua lista de perícias de classe. </span></p> <h2>@Compendium[sfrpg.class-features.G7p2YIGFTAU6uGjL]{Revelação Estellar - 1º Nível}</h2>\n<p>Conforme adquire experiência, você descobre novos segredos sobre os poderes da energia, estrelas, gravidade e outras fontes fundamentais do poder cósmico que lhe concedem a habilidade de canalizar estas forças e manifestar potentes poderes preternaturais. No 1º nível, você automaticamente aprende as revelações estelares buraco negro e supernova. No 2º nível e a cada 2 níveis subsequentes, você aprende uma revelação estelar adicional. Você não pode selecionar a mesma revelação estelar mais de uma vez, exceto se especificado o contrário. Você pode escolher quaisquer revelações estelares que desejar, mas se tiver mais revelações de fóton do que revelações de gráviton, ou vice-versa, é mais difícil para você ficar completamente sintonizado  em ambos os modos (veja Revelações Desproporcionais na página 104). A lista de revelações estelares começa na página 103.<br><br>Revelações estelares normalmente dizem que tipo de ação elas requerem. Se uma revelação estelar não disser o tipo de ação que ela exige mas modifica alguma outra ação (como um ataque ou teste de perícia), ela pode ser utilizada como parte dessa ação. Se uma revelação estelar permitir uma jogada de salvamento para resistir a seus efeitos, a CD é igual a 10 + metade de seu nível de solariano + seu modificador de Carisma. Uma revelação que durar por 1 rodada ou até você sair do modo associado permanece por qual dessas durações for mais longa. Você pode utilizar revelações estelares dentro e fora de combate, mas como não pode entrar em seu modo estelar fora de batalha, qualquer revelação que dura 1 rodada ou enquanto você estiver em um modo estelar dura somente 1 rodada fora de combate.</p>\n<h2>@Compendium[sfrpg.class-features.gXYVzmz2P3WRP9vZ]{Influência Sidereal(Su) - 3º Nível}</h2>\n<p>Você pode tocar as forças estelares fora de batalha, utilizando as propriedades de fótons ou grávitons para afetar sua utilização deperícias. No 3º nível, escolha duas perícias das listas abaixo, uma da lista de fóton e uma da lista de gráviton. No 11º nível e novamente no 19º nível, escolha mais duas perícias. Cada vez que você as selecionar, escolha uma da lista de fóton e uma da lista de gráviton.<br><br>Para utilizar sua influência sideral, você deve gastar 1 minuto em meditação e então escolher entre perícias de fóton ou perícias de  gráviton. Quando fizer um teste de perícia com uma de suas perícias selecionadas do tipo escolhido (fóton ou gráviton), você pode rolar 1d6 e somar o resultado como um bônus de intuição em seu teste. Esta habilidade dura até você entrar em combate, adormecer, cair inconsciente ou meditar novamente para escolher um tipo diferente de perícia. Você pode reativar esta habilidade meditando novamente por 1 minuto.<br><br><strong>Perícias de Fóton:</strong> Cultura (Int), Diplomacia (Car), Intimidação (Car), Medicina (Int) e Sobrevivência (Sab).<br><strong>Perícias de Gráviton:</strong> Blefe (Car), Disfarce (Car), Furtividade (Des), Misticismo (Sab) e Sentir Motivação (Sab).</p>\n<h2>@Compendium[sfrpg.class-features.XEZ8TnivxFRh1ooE]{Especialização em Armas (Ex) - 3º Nível}</h2>\n<p>Você recebe Especialização em Armas como um talento bônus para cada tipo de arma que esta classe concede proficiência. Se selecionar arma solar como sua manifestação solar, ela recebe o benefício de Especialização em Armas como se fosse uma arma branca avançada.</p>\n<h2>@Compendium[sfrpg.class-features.N0vqDchAa7oI0mYl]{Golpes Lampejantes (Ex) - 7º Nível}</h2>\n<p>Sua maestria em combate corpo a corpo permite que você realize vários ataques mais precisamente. Quando realizar um ataque total somente com armas brancas, você sofre –3 de penalidade em cada rolagem de ataque em vez dos –4 normais.</p>\n<h2>@Compendium[sfrpg.class-features.UVNOjH2ERlQjcGnU]{Revelações Zênite - 9º Nível}</h2>\n<p>No 9º nível e novamente no 17º nível, você recebe duas revelações estelares poderosas. Escolha duas revelações da lista de revelações zênite: uma revelação de fóton e uma revelação de gráviton. A lista de revelações zênite começa na página 107.<br><br>Revelações zênite são revelações estelares poderosas que requerem que você esteja completamente sintonizado em um modo estelar. Após utilizar uma revelação zênite, seu modo estelar se torna dessintonizado imediatamente.</p>\n<h2>@Compendium[sfrpg.class-features.7hoHfBi4pnuYZgYg]{Devastação do Solariano (Ex) - 13º Nível}</h2>\n<p>Quando realizar um ataque total, você pode realizar até três ataques em vez de dois ataques. Você sofre –6 de penalidade nestes ataques em vez dos –4 normais. Se tiver a característica de classe golpes lampejantes, em vez disso você sofre –5 de penalidade nestes ataques, desde que eles sejam todos ataques corpo a corpo.</p>\n<h2>@Compendium[sfrpg.class-features.WcJkQAG3YUgxYa3j]{Exemplar Estelar (Su) - 20º Nível}</h2>\n<p>&nbsp;Você é um parente espiritual das próprias estrelas. Como uma ação de movimento, você pode aumentar ou reduzir em um passo os níveis de iluminação até 9 metros ao seu redor. Quando entrar em um modo estelar, você recebe 2 pontos de sintonização do tipo correspondente imediatamente e é considerado sintonizado e, quando mantém seu modo estelar atual no início de seu turno, você recebe 2 pontos de sintonização em vez de 1, permitindo que fique completamente sintonizado após 2 rodadas.<br><br>Além disso, você pode gastar 1 Ponto de Determinação para receber pontos de sintonização para ficar completamente sintonizado na primeira rodada do combate (mas não após utilizar uma revelação zênite, ou gastar 1 Ponto de Determinação no início de seu turno em combate para trocar todos seus pontos de sintonização em um modo estelar para a mesma quantidade no outro modo estelar). Por exemplo, você pode trocar estar completamente sintonizado no modo gráviton para ficar completamente sintonizado no modo fóton.</p>"
		},
		{
			"id": "Soldier",
			"name": "Soldado",
			"description": "<p><span id=\"ctl00_MainContent_DataListClasses_ctl00_LabelName\">O conflito é um resultado inevitável da vida. Em todos os mundos que abrigam organismos vivos complexos, criaturas batalham entre si por dominação, recursos, território ou ideais. Tenha brandido armas para proteger os outros, conquistar glória, executar vingança ou simplesmente vencer na vida, você é a encarnação perfeita desta verdade. Você é especialista em todos os tipos de combate, mas tende a preferir armaduras e armamentos pesados — quanto maior, melhor. Você pode ser um soldado de carreira, um mercenário recém-recrutado ou um lobo solitário que rejeita qualquer autoridade, mas seja correndo em direção ao combate na mão ou disparando barreiras táticas, você é um guerreiro consumado, que nunca hesita em se colocar na linha de fogo para proteger seus amigos.</span></p>\n<h2>@Compendium[sfrpg.class-features.oKlwvc1HcIsg7Q7a]{Estilo de Combate Primário - 1º Nível}</h2>\n<p><span id=\"ctl00_MainContent_DataListClasses_ctl00_LabelName\"> Você tem um estilo de combate preferido que representa o tipo de soldado que você é. Cada estilo de combate é composto por várias técnicas de estilo que você aprende conforme adquire experiência. Você deve selecionar um estilo de combate ao adquirir seu primeiro nível de soldado e, uma vez feita, esta escolha não pode ser alterada. As descrições dos estilos de combate que você pode escolher aparecem nas páginas 112 a 115.</span></p>\n<h2>@Compendium[sfrpg.class-features.D5JoPMVrciPaFU1n]{Técnica de Estilo Primário} - 1º Nível}</h2>\n<p>No 1º nível e a cada 4 níveis subsequentes, você recebe uma técnica de estilo única ao seu estilo de combate primário.</p>\n<h2>@Compendium[sfrpg.class-features.J9qk9uP3Zg8r5DO1]{Talento de Combate - 2nd Level}</h2>\n<p>No 2º nível e a cada 2 níveis subsequentes, você recebe um talento bônus além daqueles recebidos pelo avanço normal de níveis. Estes talentos bônus devem ser selecionados entre os listados como talentos de combate.<br><br> Sempre que receber um novo talento bônus, você também pode escolher substituir um dos talentos bônus já aprendidos por um talento bônus diferente. O talento substituído não pode ser um que é utilizado como pré-requisito para outro talento ou outra habilidade. Você pode trocar somente um talento a cada nível adquirido e deve escolher se trocará o talento ou não no momento em que receber o novo talento bônus.</p>\n<h2>@Compendium[sfrpg.class-features.wFTC0sGqdpnZUib4]{Reforço de Equipamento- 3º Nível}</h2>\n<p>No 3º nível e a cada 4 níveis subsequentes, você aprende um truque chamado reforço de equipamento, que lhe torna melhor com um tipo específico de arma ou armadura. Escolha um dos reforços de equipamento abaixo. Alguns reforços de equipamento requerem que você alcance determinado nível de soldado para selecioná-los; este nível é indicado em parênteses após o nome do reforço.</p>\n<h2>@Compendium[sfrpg.class-features.Sh3a7c9d0ru4tGj2]{ Especialização em Armas (Ex) - 3º Nível}</h2>\n<p>Você recebe Especialização em Armas como um talento bônus para cada tipo de arma que esta classe concede proficiência.</p>\n<h2>@Compendium[sfrpg.class-features.oKlwvc1HcIsg7Q7a]{Estilo de Combate Secundário - 9º Nível}</h2>\n<p>Você escolhe outro estilo de combate. Uma vez que tenha escolhido este segundo estilo, ele não pode ser alterado.</p>\n<h2>@Compendium[sfrpg.class-features.KVIp4p8qyReBez57]{Técnica de Estilo Secundária - 9th Level}</h2>\n<p>No 9º nível e a cada 4 níveis subsequentes, você recebe uma técnica de estilo única a seu estilo de combate secundário. Para os propósitos dessas técnicas de estilo, trate seu nível de soldado como igual a seu nível de soldado –8.</p>\n<h2>@Compendium[sfrpg.class-features.2kBwPirT9JzAVcAT]{Devastação do Soldado (Ex) - 11º Nível}</h2>\n<p>Quando realizar um ataque total, você pode realizar até três ataques em vez de dois ataques. Você sofre –6 de penalidade nestes ataques em vez dos –4 normais.</p>\n<h2>@Compendium[sfrpg.class-features.TpQFUzCF5V1DbDdi]{Golpe Mortal (Ex) - 20º Nível}</h2>\n<p>Como uma ação padrão, você pode realizar um único ataque contra um inimigo. Se o ataque acertar e não matar seu inimigo, você pode gastar 1 Ponto de Determinação para forçar a criatura a obter sucesso em uma jogada de Fortitude ou morrer. Uma vez que tenha utilizado esta habilidade em uma criatura (independentemente se você a forçou ou não a tentar uma jogada de Fortitude), essa criatura fica imune a seu golpe mortal por 24 horas.</p>"
		},
		{
			"id": "Technomancer",
			"name": "Tecnomante",
			"description": "<p><span id=\"ctl00_MainContent_DataListClasses_ctl00_LabelName\">Para os não iniciados, magia e tecnologia são completamente não relacionadas, mas você sabe que há mais correlações entre as duas do que a maioria suspeita. Magia e tecnologia são apenas ferramentas e, quando combinadas em uma disciplina, chamada tecnomancia, elas podem ser muito mais poderosas do que seriam isoladas. Você usa tecnologia para potencializar, reforçar e manipular magia, e maneja magia para aumentar, controlar e modificar tecnologia. Você é um especialista em hackear a estrutura fundamental do próprio universo, submetendo as leis da ciência e da natureza à sua vontade. Sua tecnomancia — adquirida através de estudos e experimentações científicas — manipula o mundo físico, tece ilusões, lhe permite ver através do tempo e espaço e, se necessário, pode atomizar um adversário.</span></p>\n<p>&nbsp;</p>\n<p><span id=\"ctl00_MainContent_DataListClasses_ctl00_LabelName\"></span></p>\n<h2>@Compendium[sfrpg.class-features.Sl47PwjLhPkni75T]{Magias}</h2>\n<p><span id=\"ctl00_MainContent_DataListClasses_ctl00_LabelName\"></span></p>\n<p class=\"title\"><a class=\"entity-link\" draggable=\"true\" data-pack=\"sfrpg.rules\" data-id=\"Pn7hMyrGHbjpCn7c\"> Technomancer - Spells list</a></p>\n<p><span id=\"ctl00_MainContent_DataListClasses_ctl00_LabelName\">Você conjura magias da lista de magias de tecnomante (veja página 338). Para aprender ou conjurar uma magia, você deve ter um valor de Inteligência igual a pelo menos 10 + o nível da magia. A Classe de Dificuldade para uma jogada de salvamento contra sua magia é 10 + o nível da magia + seu modificador de Inteligência.<br><br>Você pode conjurar somente um determinado número de magias de cada nível de magia por dia. Seu número de magias por dia é dado na Tabela 4–10: Tecnomante. Além disso, você recebe magias bônus por dia se tiver um modificador de Inteligência de +1 ou superior, conforme mostrado na Tabela 4–11: Magias Bônus de Tecnomante — note que você só recebe estas magias bônus quando puder conjurar magias desse nível normalmente. Você também pode conjurar magias de nível 0. Estas magias são conjuradas como qualquer outra magia, mas não há limite de quantas magias de nível 0 você pode conjurar por dia.<br><br>Sua seleção de magias é limitada. Você começa o jogo conhecendo quatro magias de nível 0 e duas magias de 1º nível à sua escolha. A cada novo nível de tecnomante, você aprende uma ou duas magias novas, conforme indicado na Tabela 4–12: Magias Conhecidas de Tecnomante. Ao contrário das magias por dia, o número de magias que você conhece não é afetado por seu modificador de Inteligência.<br><br>Cada vez que adquirir um nível, você pode trocar uma magia que já conhece por uma nova magia de mesmo nível em seu lugar. Na prática, você perde a magia antiga em troca da nova. Você deve escolher se deseja trocar ou não a magia no mesmo momento em que recebe novas magias conhecidas para aquele nível.<br><br>A qualquer momento você pode conjurar qualquer magia de tecnomante que conhecer, desde que não tenha usado toda suas magias por dia daquele nível de magia. Você também pode conjurar uma magia usando um espaço de magia de nível superior. Por exemplo, se você quiser conjurar uma magia de 1º nível mas já tiver usado todas as suas magias de 1º nível para aquele dia, em vez disso você pode usar uma magia de 2º nível para conjurá-la se ainda tiver alguma disponível.<br><br>Você também pode decifrar inscrições mágicas que de outra forma seriam ininteligíveis ou, como uma ação completa, identificar quaisquer magias codificadas em uma gema de magia. Isto não invoca a magia contida no item, embora possa ocorrer caso seja uma gema amaldiçoada ou com uma armadilha. </span></p>\n<h2>@Compendium[sfrpg.class-features.0W6s1XUZdcdNqM78]{Cache de Magia (Su) - 1º Nível}</h2>\n<p>Como a culminação de seus estudos iniciais das forças fundamentais da galáxia, você criou um cache de magia que lhe permite armazenar e acessar magias. Seu cache de magia pode ser um dispositivo como um computador portátil ou um implante tecnológico; um item como um anel ou um cajado; ou um símbolo como uma marca, uma tatuagem ou outra modificação permanente em seu corpo. Embora não precise de seu cache de magia para conjurar suas magias, uma vez por dia, você pode ativar seu cache de magia para conjurar qualquer magia que conheça e seja capaz de conjurar, mesmo que tenha gasto todos seus espaços de magia para esse nível.<br><br>Se seu cache de magia for danificado, ele é restaurado ao total de Pontos de Vida na próxima vez que você recuperar suas magias diárias. Se o cache de magia for perdido ou destruído, você pode substituí-lo após 1 semana com um ritual especial que leva 8 horas para ser completado.</p>\n<h2>@Compendium[sfrpg.class-features.sobLlAGQkmWcFBFx]{Hack Mágico - 2º Nível}</h2>\n<p>Você estudou cuidadosamente as forças que definem a magia e consegue manipulá-las. Você aprende seu primeiro hack mágico no 2º nível e aprende um hack mágico adicional a cada 3 níveis subsequentes. Quando conjurar uma magia, você pode aplicar no máximo um hack mágico que afeta as características de uma magia (tal como magia distante ou magia prolongada). Se um hack mágico permitir uma jogada de salvamento para resistir a seus efeitos, a CD é igual a 10 + metade de seu nível de tecnomante + seu modificador de Inteligência. A lista de hacks mágicos aparece a partir da página 120.</p>\n<h2>@Compendium[sfrpg.class-features.X45ZYqyHHZNakUuY]{Foco em Magia - 3º Nível}</h2>\n<p>Você recebe Foco em Magia como um talento bônus.</p>\n<h2>@Compendium[sfrpg.class-features.EVMp2EOpASIpIbFQ]{Technosaber (Ex) - 3º Nível}</h2>\n<p>Você reconecta sua mente para lhe conceder maior discernimento sobre a natureza da magia e da tecnologia. Você recebe +1 de bônus de intuição em testes de Computação e Misticismo. Este bônus aumenta em 1 no 6º nível e a cada 3 níveis subsequentes.</p>\n<h2>@Compendium[sfrpg.class-features.fE6MHaMJWNki4TP6]{Especialização em Armas (Ex) (Technomancer) - 3º Nível}</h2>\n<p>Você recebe Especialização em Armas como um talento bônus para cada tipo de arma que esta classe concede proficiência.</p>\n<h2>@Compendium[sfrpg.class-features.pI1KM7WlzxLubzQz]{Capacitor de Cache  (Su) - 6º Nível}</h2>\n<p>Você expande seu cache de magia para um capacitor de cache. Como parte da recuperação de suas magias a cada dia, você pode conjurar uma única magia em seu cache de magia e tê-la lhe afetando continuamente por 24 horas. O capacitor de cache pode manter qualquer uma das seguintes magias: detectar radiação, disfarçar-se, sentidos aguçados ou servo invisível. Você deve conhecer a magia para armazená-la em seu capacitor de cache. Quando conjurar a magia em seu capacitor de cache você gasta o espaço de magia normalmente e realiza quaisquer decisões requeridas por essa magia, mas a duração não se expira por 24 horas. Se a magia de seu capacitor de cache for dissipada ou dispensada, você pode gastar 5 minutos de concentração ininterrupta para restabelecê-la, mantendo as mesmas decisões feitas quando a conjurou, continuando a magia ativa pela duração remanescente. Você não pode alterar a magia armazenada por outra magia até recuperar suas magias novamente. <br><br>No 12º nível, seu capacitor de cache adquire um segundo espaço que pode manter armadura resistente menor, bolha de vida, escalada de aranha ou visão no escuro<br><br>No 18º nível, seu capacitor de cache adquire um terceiro espaço que pode manter idiomas, ver invisibilidade, visão arcana ou voo (como uma magia de 3º nível ou inferior).</p>\n<h2>@Compendium[sfrpg.class-features.Ja89jy7LlkSG4Zzu]{Determinação Sintonizada (Ex) - 19º Nível}</h2>\n<p>Você recupera Pontos de Determinação quando usa magias poderosas. Cada vez que conjurar uma magia de 6º nível, você recupera 1 Ponto de Determinação. Isto se aplica somente a magias que você conjurar usando seus espaços de magia de 6º nível normais, não aquelas conjuradas usando itens mágicos ou outros métodos como fundir magias.</p>\n<h2>@Compendium[sfrpg.class-features.phzlgejG53nzMKb0]{Fundir Magias (Ex) - 20º Nível}</h2>\n<p>Você pode combinar espaços de magia de níveis inferiores para conjurar magias de níveis superiores. Como parte da conjuração de uma magia, você pode gastar 1 Ponto de Determinação para trocar o número de espaços de magia não usados por um único espaço de magia de nível superior; isto gasta os espaços de magia de nível inferior. Some os níveis dos espaços gastos para determinar qual nível de magia você pode conjurar (máximo 6º). Por exemplo, você poderia trocar três espaços de magia de 1º nível para conjurar uma magia de 3º nível ou poderia trocar dois espaços de magia de 3º nível para conjurar uma magia de 6º nível. Se combinar espaços de magia para conjurar uma magia de 6º nível, isto não conta para determinação sintonizada.<br><br>Além disso, você pode gastar 2 Pontos de Determinação para combinar dois espaços de magia de 6º nível para conjurar desejo.</p>"
		}
	]
}